LAB4/fpm/sim/log/log_sim.txt
You can run vsim
Reading pref.tcl

# 10.7c

# set TB_NAME top
# top
#  set SIM_TIME 4us
# 4us
#  do sim.do
# QuestaSim-64 vcom 10.7c Compiler 2018.08 Aug 17 2018
# Start time: 11:32:04 on Apr 16,2022
# vcom -93 -work ./work ../src/bru.vhd 
# -- Loading package STANDARD
# -- Loading package TEXTIO
# -- Loading package std_logic_1164
# -- Compiling entity bru
# -- Compiling architecture structural of bru
# End time: 11:32:04 on Apr 16,2022, Elapsed time: 0:00:00
# Errors: 0, Warnings: 0
# QuestaSim-64 vcom 10.7c Compiler 2018.08 Aug 17 2018
# Start time: 11:32:04 on Apr 16,2022
# vcom -93 -work ./work ../src/half_adder.vhd 
# -- Loading package STANDARD
# -- Loading package TEXTIO
# -- Loading package std_logic_1164
# -- Compiling entity half_adder
# -- Compiling architecture structural of half_adder
# End time: 11:32:04 on Apr 16,2022, Elapsed time: 0:00:00
# Errors: 0, Warnings: 0
# QuestaSim-64 vcom 10.7c Compiler 2018.08 Aug 17 2018
# Start time: 11:32:04 on Apr 16,2022
# vcom -93 -work ./work ../src/full_adder.vhd 
# -- Loading package STANDARD
# -- Loading package TEXTIO
# -- Loading package std_logic_1164
# -- Compiling entity full_adder
# -- Compiling architecture structural of full_adder
# End time: 11:32:04 on Apr 16,2022, Elapsed time: 0:00:00
# Errors: 0, Warnings: 0
# QuestaSim-64 vcom 10.7c Compiler 2018.08 Aug 17 2018
# Start time: 11:32:04 on Apr 16,2022
# vcom -93 -work ./work ../src/dadda_tree.vhd 
# -- Loading package STANDARD
# -- Loading package TEXTIO
# -- Loading package std_logic_1164
# -- Loading package NUMERIC_STD
# -- Compiling entity dadda_tree
# -- Compiling architecture structural of dadda_tree
# End time: 11:32:04 on Apr 16,2022, Elapsed time: 0:00:00
# Errors: 0, Warnings: 0
# QuestaSim-64 vcom 10.7c Compiler 2018.08 Aug 17 2018
# Start time: 11:32:04 on Apr 16,2022
# vcom -93 -work ./work ../src/pp_generation.vhd 
# -- Loading package STANDARD
# -- Loading package TEXTIO
# -- Loading package std_logic_1164
# -- Loading package NUMERIC_STD
# -- Compiling entity pp_generation
# -- Compiling architecture structural of pp_generation
# End time: 11:32:04 on Apr 16,2022, Elapsed time: 0:00:00
# Errors: 0, Warnings: 0
# QuestaSim-64 vcom 10.7c Compiler 2018.08 Aug 17 2018
# Start time: 11:32:04 on Apr 16,2022
# vcom -93 -work ./work ../src/mbe_mult.vhd 
# -- Loading package STANDARD
# -- Loading package TEXTIO
# -- Loading package std_logic_1164
# -- Loading package NUMERIC_STD
# -- Compiling entity mbe_mult
# -- Compiling architecture structural of mbe_mult
# End time: 11:32:04 on Apr 16,2022, Elapsed time: 0:00:00
# Errors: 0, Warnings: 0
# QuestaSim-64 vcom 10.7c Compiler 2018.08 Aug 17 2018
# Start time: 11:32:04 on Apr 16,2022
# vcom -93 -work ./work ../src/fpnormalize_fpnormalize.vhd 
# -- Loading package STANDARD
# -- Loading package TEXTIO
# -- Loading package std_logic_1164
# -- Loading package std_logic_arith
# -- Loading package STD_LOGIC_UNSIGNED
# -- Compiling entity FPnormalize
# -- Compiling architecture FPnormalize of FPnormalize
# End time: 11:32:05 on Apr 16,2022, Elapsed time: 0:00:01
# Errors: 0, Warnings: 0
# QuestaSim-64 vcom 10.7c Compiler 2018.08 Aug 17 2018
# Start time: 11:32:05 on Apr 16,2022
# vcom -93 -work ./work ../src/fpround_fpround.vhd 
# -- Loading package STANDARD
# -- Loading package TEXTIO
# -- Loading package std_logic_1164
# -- Loading package std_logic_arith
# -- Loading package STD_LOGIC_UNSIGNED
# -- Compiling entity FPround
# -- Compiling architecture FPround of FPround
# End time: 11:32:05 on Apr 16,2022, Elapsed time: 0:00:00
# Errors: 0, Warnings: 0
# QuestaSim-64 vcom 10.7c Compiler 2018.08 Aug 17 2018
# Start time: 11:32:05 on Apr 16,2022
# vcom -93 -work ./work ../src/packfp_packfp.vhd 
# -- Loading package STANDARD
# -- Loading package TEXTIO
# -- Loading package std_logic_1164
# -- Loading package std_logic_arith
# -- Compiling entity PackFP
# -- Compiling architecture PackFP of PackFP
# End time: 11:32:05 on Apr 16,2022, Elapsed time: 0:00:00
# Errors: 0, Warnings: 0
# QuestaSim-64 vcom 10.7c Compiler 2018.08 Aug 17 2018
# Start time: 11:32:05 on Apr 16,2022
# vcom -93 -work ./work ../src/unpackfp_unpackfp.vhd 
# -- Loading package STANDARD
# -- Loading package TEXTIO
# -- Loading package std_logic_1164
# -- Loading package std_logic_arith
# -- Compiling entity UnpackFP
# -- Compiling architecture UnpackFP of UnpackFP
# End time: 11:32:05 on Apr 16,2022, Elapsed time: 0:00:00
# Errors: 0, Warnings: 0
# QuestaSim-64 vcom 10.7c Compiler 2018.08 Aug 17 2018
# Start time: 11:32:05 on Apr 16,2022
# vcom -93 -work ./work ../src/fpmul_stage1_struct.vhd 
# -- Loading package STANDARD
# -- Loading package TEXTIO
# -- Loading package std_logic_1164
# -- Loading package std_logic_arith
# -- Compiling entity FPmul_stage1
# -- Compiling architecture struct of FPmul_stage1
# -- Loading entity UnpackFP
# End time: 11:32:05 on Apr 16,2022, Elapsed time: 0:00:00
# Errors: 0, Warnings: 0
# QuestaSim-64 vcom 10.7c Compiler 2018.08 Aug 17 2018
# Start time: 11:32:05 on Apr 16,2022
# vcom -93 -work ./work ../src/fpmul_stage2_struct.vhd 
# -- Loading package STANDARD
# -- Loading package TEXTIO
# -- Loading package std_logic_1164
# -- Loading package std_logic_arith
# -- Compiling entity FPmul_stage2
# -- Compiling architecture struct of FPmul_stage2
# End time: 11:32:05 on Apr 16,2022, Elapsed time: 0:00:00
# Errors: 0, Warnings: 0
# QuestaSim-64 vcom 10.7c Compiler 2018.08 Aug 17 2018
# Start time: 11:32:05 on Apr 16,2022
# vcom -93 -work ./work ../src/fpmul_stage3_struct.vhd 
# -- Loading package STANDARD
# -- Loading package TEXTIO
# -- Loading package std_logic_1164
# -- Loading package std_logic_arith
# -- Compiling entity FPmul_stage3
# -- Compiling architecture struct of FPmul_stage3
# -- Loading package STD_LOGIC_UNSIGNED
# -- Loading entity FPnormalize
# -- Loading entity FPround
# End time: 11:32:05 on Apr 16,2022, Elapsed time: 0:00:00
# Errors: 0, Warnings: 0
# QuestaSim-64 vcom 10.7c Compiler 2018.08 Aug 17 2018
# Start time: 11:32:05 on Apr 16,2022
# vcom -93 -work ./work ../src/fpmul_stage4_struct.vhd 
# -- Loading package STANDARD
# -- Loading package TEXTIO
# -- Loading package std_logic_1164
# -- Loading package std_logic_arith
# -- Compiling entity FPmul_stage4
# -- Compiling architecture struct of FPmul_stage4
# -- Loading package STD_LOGIC_UNSIGNED
# -- Loading entity FPnormalize
# -- Loading entity PackFP
# End time: 11:32:06 on Apr 16,2022, Elapsed time: 0:00:01
# Errors: 0, Warnings: 0
# QuestaSim-64 vcom 10.7c Compiler 2018.08 Aug 17 2018
# Start time: 11:32:06 on Apr 16,2022
# vcom -93 -work ./work ../src/FPmul.vhd 
# -- Loading package STANDARD
# -- Loading package TEXTIO
# -- Loading package std_logic_1164
# -- Loading package std_logic_arith
# -- Compiling entity FPmul
# -- Compiling architecture pipeline of FPmul
# -- Loading entity FPmul_stage1
# -- Loading entity FPmul_stage2
# -- Loading entity FPmul_stage3
# -- Loading entity FPmul_stage4
# End time: 11:32:06 on Apr 16,2022, Elapsed time: 0:00:00
# Errors: 0, Warnings: 0
# QuestaSim-64 vlog 10.7c Compiler 2018.08 Aug 17 2018
# Start time: 11:32:06 on Apr 16,2022
# vlog -sv ../tb/top.sv 
# ** Note: (vlog-2286) ../tb/top.sv(2): Using implicit +incdir+/software/mentor/questa10.7c/questasim/uvm-1.1d/../verilog_src/uvm-1.1d/src from import uvm_pkg
# -- Compiling package top_sv_unit
# -- Importing package mtiUvm.uvm_pkg (uvm-1.1d Built-in)
# ** Warning: ../tb/monitor.sv(49): (vlog-2240) Treating stand-alone use of function 'begin_tr' as an implicit VOID cast.
# ** Warning: ../tb/monitor_out.sv(48): (vlog-2240) Treating stand-alone use of function 'begin_tr' as an implicit VOID cast.
# -- Compiling interface dut_if
# -- Compiling module DUT
# -- Compiling module top
# 
# Top level modules:
# 	top
# End time: 11:32:08 on Apr 16,2022, Elapsed time: 0:00:02
# Errors: 0, Warnings: 2
# vsim top 
# Start time: 11:32:08 on Apr 16,2022
# ** Note: (vsim-3812) Design is being optimized...
# ** Warning: ../tb/monitor.sv(49): (vopt-2240) Treating stand-alone use of function 'begin_tr' as an implicit VOID cast.
# ** Warning: ../tb/monitor_out.sv(48): (vopt-2240) Treating stand-alone use of function 'begin_tr' as an implicit VOID cast.
# //  Questa Sim-64
# //  Version 10.7c linux_x86_64 Aug 17 2018
# //
# //  Copyright 1991-2018 Mentor Graphics Corporation
# //  All Rights Reserved.
# //
# //  QuestaSim and its associated documentation contain trade
# //  secrets and commercial or financial information that are the property of
# //  Mentor Graphics Corporation and are privileged, confidential,
# //  and exempt from disclosure under the Freedom of Information Act,
# //  5 U.S.C. Section 552. Furthermore, this information
# //  is prohibited from disclosure under the Trade Secrets Act,
# //  18 U.S.C. Section 1905.
# //
# Loading sv_std.std
# Loading mtiUvm.uvm_pkg
# Loading work.top_sv_unit(fast)
# Loading work.top(fast)
# Loading work.DUT(fast)
# Loading mtiUvm.questa_uvm_pkg(fast)
# Loading work.dut_if(fast)
# Loading std.standard
# Loading std.textio(body)
# Loading ieee.std_logic_1164(body)
# Loading ieee.std_logic_arith(body)
# Loading work.fpmul(pipeline)#1
# Loading work.fpmul_stage1(struct)#1
# Loading work.unpackfp(unpackfp)#1
# Loading ieee.numeric_std(body)
# Loading work.fpmul_stage2(struct)#1
# Loading work.pp_generation(structural)#1
# Loading work.dadda_tree(structural)#1
# Loading ieee.std_logic_unsigned(body)
# Loading work.fpmul_stage3(struct)#1
# Loading work.fpnormalize(fpnormalize)#1
# Loading work.fpround(fpround)#1
# Loading work.fpmul_stage4(struct)#1
# Loading work.packfp(packfp)#1
# ** Warning: (vsim-3839) Variable '/top/out/data', driven via a port connection, is multiply driven. See ../src/DUT.sv(6).
#    Time: 0 ns  Iteration: 0  Instance: /top/mbe File: ../src/DUT.sv Line: 12
# ** Warning: (vsim-3764) Stand-alone call to function 'begin_tr' treated as implicit void cast.
#    Time: 0 ns  Iteration: 0  Region: /top_sv_unit::driver File: ../tb/driver.sv Line: 67
# Loading /software/mentor/questa10.7c/questasim/uvm-1.1d/linux_x86_64/uvm_dpi.so
# ----------------------------------------------------------------
# UVM-1.1d
# (C) 2007-2013 Mentor Graphics Corporation
# (C) 2007-2013 Cadence Design Systems, Inc.
# (C) 2006-2013 Synopsys, Inc.
# (C) 2011-2013 Cypress Semiconductor Corp.
# ----------------------------------------------------------------
# 
#   ***********       IMPORTANT RELEASE NOTES         ************
# 
#   You are using a version of the UVM library that has been compiled
#   with `UVM_NO_DEPRECATED undefined.
#   See http://www.eda.org/svdb/view.php?id=3313 for more details.
# 
#   You are using a version of the UVM library that has been compiled
#   with `UVM_OBJECT_MUST_HAVE_CONSTRUCTOR undefined.
#   See http://www.eda.org/svdb/view.php?id=3770 for more details.
# 
#       (Specify +UVM_NO_RELNOTES to turn off this notice)
# 
# UVM_INFO verilog_src/questa_uvm_pkg-1.2/src/questa_uvm_pkg.sv(215) @ 0: reporter [Questa UVM] QUESTA_UVM-1.2.3
# UVM_INFO verilog_src/questa_uvm_pkg-1.2/src/questa_uvm_pkg.sv(216) @ 0: reporter [Questa UVM]  questa_uvm::init(+struct)
# ** Warning: There is an 'U'|'X'|'W'|'Z'|'-' in an arithmetic operand, the result will be 'X'(es).
#    Time: 0 ns  Iteration: 0  Instance: /top/mbe/mult_under_test/I3/I11
# ** Warning: There is an 'U'|'X'|'W'|'Z'|'-' in an arithmetic operand, the result will be 'X'(es).
#    Time: 0 ns  Iteration: 0  Instance: /top/mbe/mult_under_test/I3/I11
# ** Warning: There is an 'U'|'X'|'W'|'Z'|'-' in an arithmetic operand, the result will be 'X'(es).
#    Time: 0 ns  Iteration: 0  Instance: /top/mbe/mult_under_test/I2
# ** Warning: There is an 'U'|'X'|'W'|'Z'|'-' in an arithmetic operand, the result will be 'X'(es).
#    Time: 0 ns  Iteration: 0  Instance: /top/mbe/mult_under_test/I2
# ** Warning: There is an 'U'|'X'|'W'|'Z'|'-' in an arithmetic operand, the result will be 'X'(es).
#    Time: 0 ns  Iteration: 0  Instance: /top/mbe/mult_under_test/I2
# ** Warning: There is an 'U'|'X'|'W'|'Z'|'-' in an arithmetic operand, the result will be 'X'(es).
#    Time: 0 ns  Iteration: 0  Instance: /top/mbe/mult_under_test/I2
# ** Warning: There is an 'U'|'X'|'W'|'Z'|'-' in an arithmetic operand, the result will be 'X'(es).
#    Time: 0 ns  Iteration: 0  Instance: /top/mbe/mult_under_test/I2
# UVM_INFO @ 0: reporter [RNTST] Running test simple_test...
# ** Warning: There is an 'U'|'X'|'W'|'Z'|'-' in an arithmetic operand, the result will be 'X'(es).
#    Time: 0 ns  Iteration: 1  Instance: /top/mbe/mult_under_test/I2
# ** Warning: There is an 'U'|'X'|'W'|'Z'|'-' in an arithmetic operand, the result will be 'X'(es).
#    Time: 0 ns  Iteration: 1  Instance: /top/mbe/mult_under_test/I2
# ** Warning: There is an 'U'|'X'|'W'|'Z'|'-' in an arithmetic operand, the result will be 'X'(es).
#    Time: 0 ns  Iteration: 1  Instance: /top/mbe/mult_under_test/I2
# ** Warning: There is an 'U'|'X'|'W'|'Z'|'-' in an arithmetic operand, the result will be 'X'(es).
#    Time: 0 ns  Iteration: 1  Instance: /top/mbe/mult_under_test/I2
# ** Warning: There is an 'U'|'X'|'W'|'Z'|'-' in an arithmetic operand, the result will be 'X'(es).
#    Time: 15 ns  Iteration: 2  Instance: /top/mbe/mult_under_test/I2
# ** Warning: There is an 'U'|'X'|'W'|'Z'|'-' in an arithmetic operand, the result will be 'X'(es).
#    Time: 15 ns  Iteration: 2  Instance: /top/mbe/mult_under_test/I2
# ** Warning: There is an 'U'|'X'|'W'|'Z'|'-' in an arithmetic operand, the result will be 'X'(es).
#    Time: 15 ns  Iteration: 2  Instance: /top/mbe/mult_under_test/I2
# ** Warning: There is an 'U'|'X'|'W'|'Z'|'-' in an arithmetic operand, the result will be 'X'(es).
#    Time: 15 ns  Iteration: 2  Instance: /top/mbe/mult_under_test/I2
# ** Warning: There is an 'U'|'X'|'W'|'Z'|'-' in an arithmetic operand, the result will be 'X'(es).
#    Time: 15 ns  Iteration: 3  Instance: /top/mbe/mult_under_test/I3/I11
# ** Warning: There is an 'U'|'X'|'W'|'Z'|'-' in an arithmetic operand, the result will be 'X'(es).
#    Time: 15 ns  Iteration: 3  Instance: /top/mbe/mult_under_test/I3/I11
# fpm: input A = 0.000000e+00, input B = 0.000000e+00, output OUT = 0.000000e+00
# fpm: input A = xxxxxxxxxxxxxxxxxxxxxxxxxxxxxxxx, input B = xxxxxxxxxxxxxxxxxxxxxxxxxxxxxxxx, output OUT = xxxxxxxxxxxxxxxxxxxxxxxxxxxxxxxx
# refmod: input A = 0.000000e+00, input B = 0.000000e+00, output OUT = 0.000000e+00
# refmod: input A = xxxxxxxxxxxxxxxxxxxxxxxxxxxxxxxx, input B = xxxxxxxxxxxxxxxxxxxxxxxxxxxxxxxx, output OUT = xxxxxxxxxxxxxxxxxxxxxxxxxxxxxxxx
# UVM_INFO @ 45: uvm_test_top.env_h.comp [Comparator Match] 
# fpm: input A = 0.000000e+00, input B = 0.000000e+00, output OUT = 0.000000e+00
# fpm: input A = xxxxxxxxxxxxxxxxxxxxxxxxxxxxxxxx, input B = xxxxxxxxxxxxxxxxxxxxxxxxxxxxxxxx, output OUT = xxxxxxxxxxxxxxxxxxxxxxxxxxxxxxxx
# refmod: input A = 0.000000e+00, input B = 0.000000e+00, output OUT = 0.000000e+00
# refmod: input A = xxxxxxxxxxxxxxxxxxxxxxxxxxxxxxxx, input B = xxxxxxxxxxxxxxxxxxxxxxxxxxxxxxxx, output OUT = xxxxxxxxxxxxxxxxxxxxxxxxxxxxxxxx
# UVM_INFO @ 75: uvm_test_top.env_h.comp [Comparator Match] 
# fpm: input A = 1.040164e-12, input B = 1.156272e-32, output OUT = 0.000000e+00
# fpm: input A = 00101011100100100110001111011001, input B = 00001010011100000010010111111101, output OUT = 00000000000000000000000000000000
# refmod: input A = 1.040164e-12, input B = 1.156272e-32, output OUT = 0.000000e+00
# refmod: input A = 00101011100100100110001111011001, input B = 00001010011100000010010111111101, output OUT = 00000000000000000000000000000000
# UVM_INFO @ 105: uvm_test_top.env_h.comp [Comparator Match] 
# fpm: input A = 4.760618e-36, input B = -4.962813e-19, output OUT = -0.000000e+00
# fpm: input A = 00000100110010100111111010001011, input B = 10100001000100100111100111110100, output OUT = 10000000000000000000000000000000
# refmod: input A = 4.760618e-36, input B = -4.962813e-19, output OUT = -0.000000e+00
# refmod: input A = 00000100110010100111111010001011, input B = 10100001000100100111100111110100, output OUT = 10000000000000000000000000000000
# UVM_INFO @ 135: uvm_test_top.env_h.comp [Comparator Match] 
# fpm: input A = 1.387342e-29, input B = -3.634664e+21, output OUT = -5.042522e-08
# fpm: input A = 00001111100011001011000101110100, input B = 11100011010001010000100100011010, output OUT = 10110011010110001001001100011110
# refmod: input A = 1.387342e-29, input B = -3.634664e+21, output OUT = -5.042522e-08
# refmod: input A = 00001111100011001011000101110100, input B = 11100011010001010000100100011010, output OUT = 10110011010110001001001100011110
# UVM_INFO @ 165: uvm_test_top.env_h.comp [Comparator Match] 
# fpm: input A = -5.880607e+37, input B = -7.037248e+31, output OUT = inf
# fpm: input A = 11111110001100001111011010001100, input B = 11110100010111100000111001101111, output OUT = 01111111100000000000000000000000
# refmod: input A = -5.880607e+37, input B = -7.037248e+31, output OUT = inf
# refmod: input A = 11111110001100001111011010001100, input B = 11110100010111100000111001101111, output OUT = 01111111100000000000000000000000
# UVM_INFO @ 195: uvm_test_top.env_h.comp [Comparator Match] 
# fpm: input A = -9.403606e-20, input B = -1.123752e+18, output OUT = 1.056732e-01
# fpm: input A = 10011111110111100000100101001111, input B = 11011101011110011000010111101101, output OUT = 00111101110110000110101100110110
# refmod: input A = -9.403606e-20, input B = -1.123752e+18, output OUT = 1.056732e-01
# refmod: input A = 10011111110111100000100101001111, input B = 11011101011110011000010111101101, output OUT = 00111101110110000110101100110110
# UVM_INFO @ 225: uvm_test_top.env_h.comp [Comparator Match] 
# fpm: input A = 6.696449e-34, input B = 4.844917e+01, output OUT = 3.244374e-32
# fpm: input A = 00001000010111101000011100010110, input B = 01000010010000011100101111110100, output OUT = 00001011001010000111010100100001
# refmod: input A = 6.696449e-34, input B = 4.844917e+01, output OUT = 3.244374e-32
# refmod: input A = 00001000010111101000011100010110, input B = 01000010010000011100101111110100, output OUT = 00001011001010000111010100100001
# UVM_INFO @ 255: uvm_test_top.env_h.comp [Comparator Match] 
# fpm: input A = -5.069630e+19, input B = -2.403297e+26, output OUT = inf
# fpm: input A = 11100000001011111110001101011011, input B = 11101011010001101100101111001101, output OUT = 01111111100000000000000000000000
# refmod: input A = -5.069630e+19, input B = -2.403297e+26, output OUT = inf
# refmod: input A = 11100000001011111110001101011011, input B = 11101011010001101100101111001101, output OUT = 01111111100000000000000000000000
# UVM_INFO @ 285: uvm_test_top.env_h.comp [Comparator Match] 
# fpm: input A = -3.647030e-25, input B = -4.937935e+05, output OUT = 1.800880e-19
# fpm: input A = 10010110111000011011110110000001, input B = 11001000111100010001110000110000, output OUT = 00100000010101001001110001000001
# refmod: input A = -3.647030e-25, input B = -4.937935e+05, output OUT = 1.800880e-19
# refmod: input A = 10010110111000011011110110000001, input B = 11001000111100010001110000110000, output OUT = 00100000010101001001110001000001
# UVM_INFO @ 315: uvm_test_top.env_h.comp [Comparator Match] 
# fpm: input A = -5.015611e+23, input B = -9.618102e+08, output OUT = 4.824065e+32
# fpm: input A = 11100110110101000110101101011100, input B = 11001110011001010101000000111101, output OUT = 01110101101111100100011010011101
# refmod: input A = -5.015611e+23, input B = -9.618102e+08, output OUT = 4.824065e+32
# refmod: input A = 11100110110101000110101101011100, input B = 11001110011001010101000000111101, output OUT = 01110101101111100100011010011101
# UVM_INFO @ 345: uvm_test_top.env_h.comp [Comparator Match] 
# fpm: input A = -7.537926e-31, input B = -1.476553e-10, output OUT = 0.000000e+00
# fpm: input A = 10001101011101001001111010100100, input B = 10101111001000100101100101001001, output OUT = 00000000000000000000000000000000
# refmod: input A = -7.537926e-31, input B = -1.476553e-10, output OUT = 0.000000e+00
# refmod: input A = 10001101011101001001111010100100, input B = 10101111001000100101100101001001, output OUT = 00000000000000000000000000000000
# UVM_INFO @ 375: uvm_test_top.env_h.comp [Comparator Match] 
# fpm: input A = 1.292739e+17, input B = 1.154888e+13, output OUT = 1.492969e+30
# fpm: input A = 01011011111001011010001011111001, input B = 01010101001010000000111011110010, output OUT = 01110001100101101100000001011011
# refmod: input A = 1.292739e+17, input B = 1.154888e+13, output OUT = 1.492969e+30
# refmod: input A = 01011011111001011010001011111001, input B = 01010101001010000000111011110010, output OUT = 01110001100101101100000001011011
# UVM_INFO @ 405: uvm_test_top.env_h.comp [Comparator Match] 
# fpm: input A = -3.333851e+06, input B = -1.249732e+18, output OUT = 4.166422e+24
# fpm: input A = 11001010010010110111101101101101, input B = 11011101100010101011111110001000, output OUT = 01101000010111001001000110001100
# refmod: input A = -3.333851e+06, input B = -1.249732e+18, output OUT = 4.166422e+24
# refmod: input A = 11001010010010110111101101101101, input B = 11011101100010101011111110001000, output OUT = 01101000010111001001000110001100
# UVM_INFO @ 435: uvm_test_top.env_h.comp [Comparator Match] 
# fpm: input A = 1.820711e+23, input B = 2.341830e-17, output OUT = 4.263796e+06
# fpm: input A = 01100110000110100011100001100011, input B = 00100011110101111111111011100011, output OUT = 01001010100000100001111011101000
# refmod: input A = 1.820711e+23, input B = 2.341830e-17, output OUT = 4.263796e+06
# refmod: input A = 01100110000110100011100001100011, input B = 00100011110101111111111011100011, output OUT = 01001010100000100001111011101000
# UVM_INFO @ 465: uvm_test_top.env_h.comp [Comparator Match] 
# fpm: input A = -1.030253e+12, input B = 2.357129e-26, output OUT = -2.428440e-14
# fpm: input A = 11010011011011111101111111100011, input B = 00010100111010010111000001010011, output OUT = 10101000110110101011110000000101
# refmod: input A = -1.030253e+12, input B = 2.357129e-26, output OUT = -2.428440e-14
# refmod: input A = 11010011011011111101111111100011, input B = 00010100111010010111000001010011, output OUT = 10101000110110101011110000000101
# UVM_INFO @ 495: uvm_test_top.env_h.comp [Comparator Match] 
# fpm: input A = 1.180621e-35, input B = 2.056180e+32, output OUT = 2.427569e-03
# fpm: input A = 00000101011110110001011100100001, input B = 01110101001000100011010000111001, output OUT = 00111011000111110001011111011011
# refmod: input A = 1.180621e-35, input B = 2.056180e+32, output OUT = 2.427569e-03
# refmod: input A = 00000101011110110001011100100001, input B = 01110101001000100011010000111001, output OUT = 00111011000111110001011111011011
# UVM_INFO @ 525: uvm_test_top.env_h.comp [Comparator Match] 
# fpm: input A = -1.008183e-05, input B = -2.041319e-22, output OUT = 2.058023e-27
# fpm: input A = 10110111001010010010010100011110, input B = 10011011011101101100011111000110, output OUT = 00010011001000110000110110101010
# refmod: input A = -1.008183e-05, input B = -2.041319e-22, output OUT = 2.058023e-27
# refmod: input A = 10110111001010010010010100011110, input B = 10011011011101101100011111000110, output OUT = 00010011001000110000110110101010
# UVM_INFO @ 555: uvm_test_top.env_h.comp [Comparator Match] 
# fpm: input A = 1.727681e-07, input B = 6.833922e-17, output OUT = 1.180684e-23
# fpm: input A = 00110100001110011000001000100001, input B = 00100100100111011001010001011011, output OUT = 00011001011001000110000010011111
# refmod: input A = 1.727681e-07, input B = 6.833922e-17, output OUT = 1.180684e-23
# refmod: input A = 00110100001110011000001000100001, input B = 00100100100111011001010001011011, output OUT = 00011001011001000110000010011111
# UVM_INFO @ 585: uvm_test_top.env_h.comp [Comparator Match] 
# fpm: input A = 1.166357e+18, input B = 2.320973e+00, output OUT = 2.707082e+18
# fpm: input A = 01011101100000010111110111011010, input B = 01000000000101001000101011010010, output OUT = 01011110000101100100010111110100
# refmod: input A = 1.166357e+18, input B = 2.320973e+00, output OUT = 2.707082e+18
# refmod: input A = 01011101100000010111110111011010, input B = 01000000000101001000101011010010, output OUT = 01011110000101100100010111110100
# UVM_INFO @ 615: uvm_test_top.env_h.comp [Comparator Match] 
# fpm: input A = 1.083162e+22, input B = 5.282156e-23, output OUT = 5.721433e-01
# fpm: input A = 01100100000100101100101110111111, input B = 00011010011111110110110111101110, output OUT = 00111111000100100111011111111100
# refmod: input A = 1.083162e+22, input B = 5.282156e-23, output OUT = 5.721433e-01
# refmod: input A = 01100100000100101100101110111111, input B = 00011010011111110110110111101110, output OUT = 00111111000100100111011111111100
# UVM_INFO @ 645: uvm_test_top.env_h.comp [Comparator Match] 
# fpm: input A = 4.330720e+05, input B = -9.332406e+33, output OUT = -inf
# fpm: input A = 01001000110100110111010111111111, input B = 11110111111001100000111111000011, output OUT = 11111111100000000000000000000000
# refmod: input A = 4.330720e+05, input B = -9.332406e+33, output OUT = -inf
# refmod: input A = 01001000110100110111010111111111, input B = 11110111111001100000111111000011, output OUT = 11111111100000000000000000000000
# UVM_INFO @ 675: uvm_test_top.env_h.comp [Comparator Match] 
# fpm: input A = -1.361709e-21, input B = 2.070940e-37, output OUT = -0.000000e+00
# fpm: input A = 10011100110011011100011010010001, input B = 00000010100011001111000011011011, output OUT = 10000000000000000000000000000000
# refmod: input A = -1.361709e-21, input B = 2.070940e-37, output OUT = -0.000000e+00
# refmod: input A = 10011100110011011100011010010001, input B = 00000010100011001111000011011011, output OUT = 10000000000000000000000000000000
# UVM_INFO @ 705: uvm_test_top.env_h.comp [Comparator Match] 
# fpm: input A = -1.862721e-22, input B = -3.172272e+09, output OUT = 5.909056e-13
# fpm: input A = 10011011011000010011000001101011, input B = 11001111001111010001010100000110, output OUT = 00101011001001100101001100111101
# refmod: input A = -1.862721e-22, input B = -3.172272e+09, output OUT = 5.909056e-13
# refmod: input A = 10011011011000010011000001101011, input B = 11001111001111010001010100000110, output OUT = 00101011001001100101001100111101
# UVM_INFO @ 735: uvm_test_top.env_h.comp [Comparator Match] 
# fpm: input A = -1.618720e+07, input B = 1.550566e+36, output OUT = -inf
# fpm: input A = 11001011011101101111111101000101, input B = 01111011100101010101000001100111, output OUT = 11111111100000000000000000000000
# refmod: input A = -1.618720e+07, input B = 1.550566e+36, output OUT = -inf
# refmod: input A = 11001011011101101111111101000101, input B = 01111011100101010101000001100111, output OUT = 11111111100000000000000000000000
# UVM_INFO @ 765: uvm_test_top.env_h.comp [Comparator Match] 
# fpm: input A = -1.574948e-15, input B = -4.625793e+21, output OUT = 7.285384e+06
# fpm: input A = 10100110111000101111100101010011, input B = 11100011011110101100001111000111, output OUT = 01001010110111100101010100001111
# refmod: input A = -1.574948e-15, input B = -4.625793e+21, output OUT = 7.285384e+06
# refmod: input A = 10100110111000101111100101010011, input B = 11100011011110101100001111000111, output OUT = 01001010110111100101010100001111
# UVM_INFO @ 795: uvm_test_top.env_h.comp [Comparator Match] 
# fpm: input A = -5.691317e-07, input B = -2.848148e+24, output OUT = 1.620972e+18
# fpm: input A = 10110101000110001100011001101111, input B = 11101000000101101100011110011100, output OUT = 01011101101100111111011011001001
# refmod: input A = -5.691317e-07, input B = -2.848148e+24, output OUT = 1.620972e+18
# refmod: input A = 10110101000110001100011001101111, input B = 11101000000101101100011110011100, output OUT = 01011101101100111111011011001001
# UVM_INFO @ 825: uvm_test_top.env_h.comp [Comparator Match] 
# fpm: input A = 3.892442e+25, input B = -1.544059e-31, output OUT = -6.010159e-06
# fpm: input A = 01101010000000001100101001000101, input B = 10001100010010000110111000100110, output OUT = 10110110110010011010101011100000
# refmod: input A = 3.892442e+25, input B = -1.544059e-31, output OUT = -6.010159e-06
# refmod: input A = 01101010000000001100101001000101, input B = 10001100010010000110111000100110, output OUT = 10110110110010011010101011100000
# UVM_INFO @ 855: uvm_test_top.env_h.comp [Comparator Match] 
# fpm: input A = -3.255603e-05, input B = 4.100214e-26, output OUT = -1.334867e-30
# fpm: input A = 10111000000010001000110011000110, input B = 00010101010010110000100001100010, output OUT = 10001101110110001001100000110011
# refmod: input A = -3.255603e-05, input B = 4.100214e-26, output OUT = -1.334867e-30
# refmod: input A = 10111000000010001000110011000110, input B = 00010101010010110000100001100010, output OUT = 10001101110110001001100000110011
# UVM_INFO @ 885: uvm_test_top.env_h.comp [Comparator Match] 
# fpm: input A = -1.487603e+25, input B = 3.062147e+11, output OUT = -4.555260e+36
# fpm: input A = 11101001010001001110000111110110, input B = 01010010100011101001011110100011, output OUT = 11111100010110110101001111101010
# refmod: input A = -1.487603e+25, input B = 3.062147e+11, output OUT = -4.555260e+36
# refmod: input A = 11101001010001001110000111110110, input B = 01010010100011101001011110100011, output OUT = 11111100010110110101001111101010
# UVM_INFO @ 915: uvm_test_top.env_h.comp [Comparator Match] 
# fpm: input A = 9.614117e+35, input B = 7.266923e-04, output OUT = 6.986505e+32
# fpm: input A = 01111011001110010010100101000010, input B = 00111010001111100111111101111110, output OUT = 01110110000010011100100011010110
# refmod: input A = 9.614117e+35, input B = 7.266923e-04, output OUT = 6.986505e+32
# refmod: input A = 01111011001110010010100101000010, input B = 00111010001111100111111101111110, output OUT = 01110110000010011100100011010110
# UVM_INFO @ 945: uvm_test_top.env_h.comp [Comparator Match] 
# fpm: input A = 2.393728e-25, input B = 6.723753e-02, output OUT = 1.609484e-26
# fpm: input A = 00010110100101000010101000100010, input B = 00111101100010011011001111010101, output OUT = 00010100100111110110010101000010
