LAB4/add/sim/log/log_sim.txt
You can run vsim
Reading pref.tcl

# 10.7c

# set TB_NAME top
# top
#  set SIM_TIME 4us
# 4us
#  do sim.do
# QuestaSim-64 vlog 10.7c Compiler 2018.08 Aug 17 2018
# Start time: 12:51:02 on Apr 11,2022
# vlog -sv ../tb/top.sv 
# ** Note: (vlog-2286) ../tb/top.sv(2): Using implicit +incdir+/software/mentor/questa10.7c/questasim/uvm-1.1d/../verilog_src/uvm-1.1d/src from import uvm_pkg
# -- Compiling package top_sv_unit
# -- Importing package mtiUvm.uvm_pkg (uvm-1.1d Built-in)
# ** Warning: ../tb/monitor.sv(49): (vlog-2240) Treating stand-alone use of function 'begin_tr' as an implicit VOID cast.
# ** Warning: ../tb/monitor_out.sv(48): (vlog-2240) Treating stand-alone use of function 'begin_tr' as an implicit VOID cast.
# -- Compiling module adder
# -- Compiling interface dut_if
# -- Compiling module DUT
# -- Compiling module top
# 
# Top level modules:
# 	top
# End time: 12:51:03 on Apr 11,2022, Elapsed time: 0:00:01
# Errors: 0, Warnings: 2
# vsim top 
# Start time: 12:51:03 on Apr 11,2022
# ** Note: (vsim-3812) Design is being optimized...
# ** Warning: ../tb/monitor.sv(49): (vopt-2240) Treating stand-alone use of function 'begin_tr' as an implicit VOID cast.
# ** Warning: ../tb/monitor_out.sv(48): (vopt-2240) Treating stand-alone use of function 'begin_tr' as an implicit VOID cast.
# //  Questa Sim-64
# //  Version 10.7c linux_x86_64 Aug 17 2018
# //
# //  Copyright 1991-2018 Mentor Graphics Corporation
# //  All Rights Reserved.
# //
# //  QuestaSim and its associated documentation contain trade
# //  secrets and commercial or financial information that are the property of
# //  Mentor Graphics Corporation and are privileged, confidential,
# //  and exempt from disclosure under the Freedom of Information Act,
# //  5 U.S.C. Section 552. Furthermore, this information
# //  is prohibited from disclosure under the Trade Secrets Act,
# //  18 U.S.C. Section 1905.
# //
# Loading sv_std.std
# Loading mtiUvm.uvm_pkg
# Loading work.top_sv_unit(fast)
# Loading work.top(fast)
# Loading work.DUT(fast)
# Loading mtiUvm.questa_uvm_pkg(fast)
# Loading work.dut_if(fast)
# ** Warning: (vsim-3838) Variable '/top/out/data' written by continuous and procedural assignments. 
# One of the assignments is implicit. See ../src/DUT.sv(9).
#    Time: 0 ns  Iteration: 0  Instance: /top/sum File: ../src/DUT.sv Line: 3
# ** Warning: (vsim-3764) Stand-alone call to function 'begin_tr' treated as implicit void cast.
#    Time: 0 ns  Iteration: 0  Region: /top_sv_unit::driver File: ../tb/driver.sv Line: 67
# Loading /software/mentor/questa10.7c/questasim/uvm-1.1d/linux_x86_64/uvm_dpi.so
# ----------------------------------------------------------------
# UVM-1.1d
# (C) 2007-2013 Mentor Graphics Corporation
# (C) 2007-2013 Cadence Design Systems, Inc.
# (C) 2006-2013 Synopsys, Inc.
# (C) 2011-2013 Cypress Semiconductor Corp.
# ----------------------------------------------------------------
# 
#   ***********       IMPORTANT RELEASE NOTES         ************
# 
#   You are using a version of the UVM library that has been compiled
#   with `UVM_NO_DEPRECATED undefined.
#   See http://www.eda.org/svdb/view.php?id=3313 for more details.
# 
#   You are using a version of the UVM library that has been compiled
#   with `UVM_OBJECT_MUST_HAVE_CONSTRUCTOR undefined.
#   See http://www.eda.org/svdb/view.php?id=3770 for more details.
# 
#       (Specify +UVM_NO_RELNOTES to turn off this notice)
# 
# UVM_INFO verilog_src/questa_uvm_pkg-1.2/src/questa_uvm_pkg.sv(215) @ 0: reporter [Questa UVM] QUESTA_UVM-1.2.3
# UVM_INFO verilog_src/questa_uvm_pkg-1.2/src/questa_uvm_pkg.sv(216) @ 0: reporter [Questa UVM]  questa_uvm::init(+struct)
# UVM_INFO @ 0: reporter [RNTST] Running test simple_test...
# adder: input A =        288, input B = 2518942569, output OUT = 2518942857
# adder: input A = 00000000000000000000000100100000, input B = 10010110001001000000001101101001, output OUT = 10010110001001000000010010001001
# refmod: input A =         288, input B = -1776024727, output OUT =  1776025015
# refmod: input A = 00000000000000000000000100100000, input B = 10010110001001000000001101101001, output OUT = 01101001110110111111110110110111
# UVM_INFO @ 45: reporter [MISCMP] Miscompare for exp.data: lhs = 'h69dbfdb7 : rhs = 'h96240489
# UVM_INFO @ 45: reporter [MISCMP] 1 Miscompare(s) for object tr@825 vs. exp@617
# UVM_WARNING @ 45: uvm_test_top.env_h.comp [Comparator Mismatch] 
# adder: input A =        552, input B = 2774305271, output OUT = 2774305823
# adder: input A = 00000000000000000000001000101000, input B = 10100101010111001000100111110111, output OUT = 10100101010111001000110000011111
# refmod: input A =         552, input B = -1520662025, output OUT =  1520662577
# refmod: input A = 00000000000000000000001000101000, input B = 10100101010111001000100111110111, output OUT = 01011010101000110111100000110001
# UVM_INFO @ 75: reporter [MISCMP] Miscompare for exp.data: lhs = 'h5aa37831 : rhs = 'ha55c8c1f
# UVM_INFO @ 75: reporter [MISCMP] 1 Miscompare(s) for object tr@825 vs. exp@617
# UVM_WARNING @ 75: uvm_test_top.env_h.comp [Comparator Mismatch] 
# adder: input A =        539, input B = 2721861113, output OUT = 2721861652
# adder: input A = 00000000000000000000001000011011, input B = 10100010001111000100110111111001, output OUT = 10100010001111000101000000010100
# refmod: input A =         539, input B = -1573106183, output OUT =  1573106722
# refmod: input A = 00000000000000000000001000011011, input B = 10100010001111000100110111111001, output OUT = 01011101110000111011010000100010
# UVM_INFO @ 105: reporter [MISCMP] Miscompare for exp.data: lhs = 'h5dc3b422 : rhs = 'ha23c5014
# UVM_INFO @ 105: reporter [MISCMP] 1 Miscompare(s) for object tr@825 vs. exp@617
# UVM_WARNING @ 105: uvm_test_top.env_h.comp [Comparator Mismatch] 
# adder: input A =        488, input B = 3079128966, output OUT = 3079129454
# adder: input A = 00000000000000000000000111101000, input B = 10110111100001111100011110000110, output OUT = 10110111100001111100100101101110
# refmod: input A =         488, input B = -1215838330, output OUT =  1215838818
# refmod: input A = 00000000000000000000000111101000, input B = 10110111100001111100011110000110, output OUT = 01001000011110000011101001100010
# UVM_INFO @ 135: reporter [MISCMP] Miscompare for exp.data: lhs = 'h48783a62 : rhs = 'hb787c96e
# UVM_INFO @ 135: reporter [MISCMP] 1 Miscompare(s) for object tr@825 vs. exp@617
# UVM_WARNING @ 135: uvm_test_top.env_h.comp [Comparator Mismatch] 
# adder: input A =        712, input B = 2814418271, output OUT = 2814418983
# adder: input A = 00000000000000000000001011001000, input B = 10100111110000001001110101011111, output OUT = 10100111110000001010000000100111
# refmod: input A =         712, input B = -1480549025, output OUT =  1480549737
# refmod: input A = 00000000000000000000001011001000, input B = 10100111110000001001110101011111, output OUT = 01011000001111110110010101101001
# UVM_INFO @ 165: reporter [MISCMP] Miscompare for exp.data: lhs = 'h583f6569 : rhs = 'ha7c0a027
# UVM_INFO @ 165: reporter [MISCMP] 1 Miscompare(s) for object tr@825 vs. exp@617
# UVM_WARNING @ 165: uvm_test_top.env_h.comp [Comparator Mismatch] 
# adder: input A =        175, input B = 2728146874, output OUT = 2728147049
# adder: input A = 00000000000000000000000010101111, input B = 10100010100111000011011110111010, output OUT = 10100010100111000011100001101001
# refmod: input A =         175, input B = -1566820422, output OUT =  1566820597
# refmod: input A = 00000000000000000000000010101111, input B = 10100010100111000011011110111010, output OUT = 01011101011000111100100011110101
# UVM_INFO @ 195: reporter [MISCMP] Miscompare for exp.data: lhs = 'h5d63c8f5 : rhs = 'ha29c3869
# UVM_INFO @ 195: reporter [MISCMP] 1 Miscompare(s) for object tr@825 vs. exp@617
# UVM_WARNING @ 195: uvm_test_top.env_h.comp [Comparator Mismatch] 
# adder: input A =        363, input B = 2723932317, output OUT = 2723932680
# adder: input A = 00000000000000000000000101101011, input B = 10100010010110111110100010011101, output OUT = 10100010010110111110101000001000
# refmod: input A =         363, input B = -1571034979, output OUT =  1571035342
# refmod: input A = 00000000000000000000000101101011, input B = 10100010010110111110100010011101, output OUT = 01011101101001000001100011001110
# UVM_INFO @ 225: reporter [MISCMP] Miscompare for exp.data: lhs = 'h5da418ce : rhs = 'ha25bea08
# UVM_INFO @ 225: reporter [MISCMP] 1 Miscompare(s) for object tr@825 vs. exp@617
# UVM_WARNING @ 225: uvm_test_top.env_h.comp [Comparator Mismatch] 
# adder: input A =        162, input B = 3137793582, output OUT = 3137793744
# adder: input A = 00000000000000000000000010100010, input B = 10111011000001101110111000101110, output OUT = 10111011000001101110111011010000
# refmod: input A =         162, input B = -1157173714, output OUT =  1157173876
# refmod: input A = 00000000000000000000000010100010, input B = 10111011000001101110111000101110, output OUT = 01000100111110010001001001110100
# UVM_INFO @ 255: reporter [MISCMP] Miscompare for exp.data: lhs = 'h44f91274 : rhs = 'hbb06eed0
# UVM_INFO @ 255: reporter [MISCMP] 1 Miscompare(s) for object tr@825 vs. exp@617
# UVM_WARNING @ 255: uvm_test_top.env_h.comp [Comparator Mismatch] 
# adder: input A =        248, input B = 3316806189, output OUT = 3316806437
# adder: input A = 00000000000000000000000011111000, input B = 11000101101100100111001000101101, output OUT = 11000101101100100111001100100101
# refmod: input A =         248, input B =  -978161107, output OUT =   978161355
# refmod: input A = 00000000000000000000000011111000, input B = 11000101101100100111001000101101, output OUT = 00111010010011011000111011001011
# UVM_INFO @ 285: reporter [MISCMP] Miscompare for exp.data: lhs = 'h3a4d8ecb : rhs = 'hc5b27325
# UVM_INFO @ 285: reporter [MISCMP] 1 Miscompare(s) for object tr@825 vs. exp@617
# UVM_WARNING @ 285: uvm_test_top.env_h.comp [Comparator Mismatch] 
# adder: input A =        665, input B = 3392597977, output OUT = 3392598642
# adder: input A = 00000000000000000000001010011001, input B = 11001010001101101110111111011001, output OUT = 11001010001101101111001001110010
# refmod: input A =         665, input B =  -902369319, output OUT =   902369984
# refmod: input A = 00000000000000000000001010011001, input B = 11001010001101101110111111011001, output OUT = 00110101110010010001001011000000
# UVM_INFO @ 315: reporter [MISCMP] Miscompare for exp.data: lhs = 'h35c912c0 : rhs = 'hca36f272
# UVM_INFO @ 315: reporter [MISCMP] 1 Miscompare(s) for object tr@825 vs. exp@617
# UVM_WARNING @ 315: uvm_test_top.env_h.comp [Comparator Mismatch] 
# adder: input A =        224, input B = 3232674287, output OUT = 3232674511
# adder: input A = 00000000000000000000000011100000, input B = 11000000101011101011000111101111, output OUT = 11000000101011101011001011001111
# refmod: input A =         224, input B = -1062293009, output OUT =  1062293233
# refmod: input A = 00000000000000000000000011100000, input B = 11000000101011101011000111101111, output OUT = 00111111010100010100111011110001
# UVM_INFO @ 345: reporter [MISCMP] Miscompare for exp.data: lhs = 'h3f514ef1 : rhs = 'hc0aeb2cf
# UVM_INFO @ 345: reporter [MISCMP] 1 Miscompare(s) for object tr@825 vs. exp@617
# UVM_WARNING @ 345: uvm_test_top.env_h.comp [Comparator Mismatch] 
# adder: input A =        111, input B = 2457640446, output OUT = 2457640557
# adder: input A = 00000000000000000000000001101111, input B = 10010010011111001001110111111110, output OUT = 10010010011111001001111001101101
# refmod: input A =         111, input B = -1837326850, output OUT =  1837326961
# refmod: input A = 00000000000000000000000001101111, input B = 10010010011111001001110111111110, output OUT = 01101101100000110110001001110001
# UVM_INFO @ 375: reporter [MISCMP] Miscompare for exp.data: lhs = 'h6d836271 : rhs = 'h927c9e6d
# UVM_INFO @ 375: reporter [MISCMP] 1 Miscompare(s) for object tr@825 vs. exp@617
# UVM_WARNING @ 375: uvm_test_top.env_h.comp [Comparator Mismatch] 
# adder: input A =        881, input B = 3704323614, output OUT = 3704324495
# adder: input A = 00000000000000000000001101110001, input B = 11011100110010110111111000011110, output OUT = 11011100110010111000000110001111
# refmod: input A =         881, input B =  -590643682, output OUT =   590644563
# refmod: input A = 00000000000000000000001101110001, input B = 11011100110010110111111000011110, output OUT = 00100011001101001000010101010011
# UVM_INFO @ 405: reporter [MISCMP] Miscompare for exp.data: lhs = 'h23348553 : rhs = 'hdccb818f
# UVM_INFO @ 405: reporter [MISCMP] 1 Miscompare(s) for object tr@825 vs. exp@617
# UVM_WARNING @ 405: uvm_test_top.env_h.comp [Comparator Mismatch] 
# adder: input A =        141, input B = 3502714714, output OUT = 3502714855
# adder: input A = 00000000000000000000000010001101, input B = 11010000110001110010111101011010, output OUT = 11010000110001110010111111100111
# refmod: input A =         141, input B =  -792252582, output OUT =   792252723
# refmod: input A = 00000000000000000000000010001101, input B = 11010000110001110010111101011010, output OUT = 00101111001110001101000100110011
# UVM_INFO @ 435: reporter [MISCMP] Miscompare for exp.data: lhs = 'h2f38d133 : rhs = 'hd0c72fe7
# UVM_INFO @ 435: reporter [MISCMP] 1 Miscompare(s) for object tr@825 vs. exp@617
# UVM_WARNING @ 435: uvm_test_top.env_h.comp [Comparator Mismatch] 
# adder: input A =        396, input B = 3127994423, output OUT = 3127994819
# adder: input A = 00000000000000000000000110001100, input B = 10111010011100010110100000110111, output OUT = 10111010011100010110100111000011
# refmod: input A =         396, input B = -1166972873, output OUT =  1166973269
# refmod: input A = 00000000000000000000000110001100, input B = 10111010011100010110100000110111, output OUT = 01000101100011101001100101010101
# UVM_INFO @ 465: reporter [MISCMP] Miscompare for exp.data: lhs = 'h458e9955 : rhs = 'hba7169c3
# UVM_INFO @ 465: reporter [MISCMP] 1 Miscompare(s) for object tr@825 vs. exp@617
# UVM_WARNING @ 465: uvm_test_top.env_h.comp [Comparator Mismatch] 
# adder: input A =        170, input B = 2701621257, output OUT = 2701621427
# adder: input A = 00000000000000000000000010101010, input B = 10100001000001110111100000001001, output OUT = 10100001000001110111100010110011
# refmod: input A =         170, input B = -1593346039, output OUT =  1593346209
# refmod: input A = 00000000000000000000000010101010, input B = 10100001000001110111100000001001, output OUT = 01011110111110001000100010100001
# UVM_INFO @ 495: reporter [MISCMP] Miscompare for exp.data: lhs = 'h5ef888a1 : rhs = 'ha10778b3
# UVM_INFO @ 495: reporter [MISCMP] 1 Miscompare(s) for object tr@825 vs. exp@617
# UVM_WARNING @ 495: uvm_test_top.env_h.comp [Comparator Mismatch] 
# adder: input A =        871, input B = 3788755530, output OUT = 3788756401
# adder: input A = 00000000000000000000001101100111, input B = 11100001110100111101001001001010, output OUT = 11100001110100111101010110110001
# refmod: input A =         871, input B =  -506211766, output OUT =   506212637
# refmod: input A = 00000000000000000000001101100111, input B = 11100001110100111101001001001010, output OUT = 00011110001011000011000100011101
# UVM_INFO @ 525: reporter [MISCMP] Miscompare for exp.data: lhs = 'h1e2c311d : rhs = 'he1d3d5b1
# UVM_INFO @ 525: reporter [MISCMP] 1 Miscompare(s) for object tr@825 vs. exp@617
# UVM_WARNING @ 525: uvm_test_top.env_h.comp [Comparator Mismatch] 
# adder: input A =        172, input B = 2412020465, output OUT = 2412020637
# adder: input A = 00000000000000000000000010101100, input B = 10001111110001001000001011110001, output OUT = 10001111110001001000001110011101
# refmod: input A =         172, input B = -1882946831, output OUT =  1882947003
# refmod: input A = 00000000000000000000000010101100, input B = 10001111110001001000001011110001, output OUT = 01110000001110110111110110111011
# UVM_INFO @ 555: reporter [MISCMP] Miscompare for exp.data: lhs = 'h703b7dbb : rhs = 'h8fc4839d
# UVM_INFO @ 555: reporter [MISCMP] 1 Miscompare(s) for object tr@825 vs. exp@617
# UVM_WARNING @ 555: uvm_test_top.env_h.comp [Comparator Mismatch] 
# adder: input A =        992, input B = 3150648938, output OUT = 3150649930
# adder: input A = 00000000000000000000001111100000, input B = 10111011110010110001011001101010, output OUT = 10111011110010110001101001001010
# refmod: input A =         992, input B = -1144318358, output OUT =  1144319350
# refmod: input A = 00000000000000000000001111100000, input B = 10111011110010110001011001101010, output OUT = 01000100001101001110110101110110
# UVM_INFO @ 585: reporter [MISCMP] Miscompare for exp.data: lhs = 'h4434ed76 : rhs = 'hbbcb1a4a
# UVM_INFO @ 585: reporter [MISCMP] 1 Miscompare(s) for object tr@825 vs. exp@617
# UVM_WARNING @ 585: uvm_test_top.env_h.comp [Comparator Mismatch] 
# adder: input A =        579, input B = 2882976903, output OUT = 2882977482
# adder: input A = 00000000000000000000001001000011, input B = 10101011110101101011110010000111, output OUT = 10101011110101101011111011001010
# refmod: input A =         579, input B = -1411990393, output OUT =  1411990972
# refmod: input A = 00000000000000000000001001000011, input B = 10101011110101101011110010000111, output OUT = 01010100001010010100010110111100
# UVM_INFO @ 615: reporter [MISCMP] Miscompare for exp.data: lhs = 'h542945bc : rhs = 'habd6beca
# UVM_INFO @ 615: reporter [MISCMP] 1 Miscompare(s) for object tr@825 vs. exp@617
# UVM_WARNING @ 615: uvm_test_top.env_h.comp [Comparator Mismatch] 
# adder: input A =        493, input B = 3969227115, output OUT = 3969227608
# adder: input A = 00000000000000000000000111101101, input B = 11101100100101011001100101101011, output OUT = 11101100100101011001101101011000
# refmod: input A =         493, input B =  -325740181, output OUT =   325740674
# refmod: input A = 00000000000000000000000111101101, input B = 11101100100101011001100101101011, output OUT = 00010011011010100110100010000010
# UVM_INFO @ 645: reporter [MISCMP] Miscompare for exp.data: lhs = 'h136a6882 : rhs = 'hec959b58
# UVM_INFO @ 645: reporter [MISCMP] 1 Miscompare(s) for object tr@825 vs. exp@617
# UVM_WARNING @ 645: uvm_test_top.env_h.comp [Comparator Mismatch] 
# adder: input A =        996, input B = 4164964412, output OUT = 4164965408
# adder: input A = 00000000000000000000001111100100, input B = 11111000010000000101000000111100, output OUT = 11111000010000000101010000100000
# refmod: input A =         996, input B =  -130002884, output OUT =   130003880
# refmod: input A = 00000000000000000000001111100100, input B = 11111000010000000101000000111100, output OUT = 00000111101111111011001110101000
# UVM_INFO @ 675: reporter [MISCMP] Miscompare for exp.data: lhs = 'h7bfb3a8 : rhs = 'hf8405420
# UVM_INFO @ 675: reporter [MISCMP] 1 Miscompare(s) for object tr@825 vs. exp@617
# UVM_WARNING @ 675: uvm_test_top.env_h.comp [Comparator Mismatch] 
# adder: input A =        106, input B = 4047532198, output OUT = 4047532304
# adder: input A = 00000000000000000000000001101010, input B = 11110001010000000111000010100110, output OUT = 11110001010000000111000100010000
# refmod: input A =         106, input B =  -247435098, output OUT =   247435204
# refmod: input A = 00000000000000000000000001101010, input B = 11110001010000000111000010100110, output OUT = 00001110101111111000111111000100
# UVM_INFO @ 705: reporter [MISCMP] Miscompare for exp.data: lhs = 'hebf8fc4 : rhs = 'hf1407110
# UVM_INFO @ 705: reporter [MISCMP] 1 Miscompare(s) for object tr@825 vs. exp@617
# UVM_WARNING @ 705: uvm_test_top.env_h.comp [Comparator Mismatch] 
# adder: input A =        954, input B = 3248832319, output OUT = 3248833273
# adder: input A = 00000000000000000000001110111010, input B = 11000001101001010011111100111111, output OUT = 11000001101001010100001011111001
# refmod: input A =         954, input B = -1046134977, output OUT =  1046135931
# refmod: input A = 00000000000000000000001110111010, input B = 11000001101001010011111100111111, output OUT = 00111110010110101100010001111011
# UVM_INFO @ 735: reporter [MISCMP] Miscompare for exp.data: lhs = 'h3e5ac47b : rhs = 'hc1a542f9
# UVM_INFO @ 735: reporter [MISCMP] 1 Miscompare(s) for object tr@825 vs. exp@617
# UVM_WARNING @ 735: uvm_test_top.env_h.comp [Comparator Mismatch] 
# adder: input A =        652, input B = 3496798236, output OUT = 3496798888
# adder: input A = 00000000000000000000001010001100, input B = 11010000011011001110100000011100, output OUT = 11010000011011001110101010101000
# refmod: input A =         652, input B =  -798169060, output OUT =   798169712
# refmod: input A = 00000000000000000000001010001100, input B = 11010000011011001110100000011100, output OUT = 00101111100100110001101001110000
# UVM_INFO @ 765: reporter [MISCMP] Miscompare for exp.data: lhs = 'h2f931a70 : rhs = 'hd06ceaa8
# UVM_INFO @ 765: reporter [MISCMP] 1 Miscompare(s) for object tr@825 vs. exp@617
# UVM_WARNING @ 765: uvm_test_top.env_h.comp [Comparator Mismatch] 
# adder: input A =        744, input B = 2397751988, output OUT = 2397752732
# adder: input A = 00000000000000000000001011101000, input B = 10001110111010101100101010110100, output OUT = 10001110111010101100110110011100
# refmod: input A =         744, input B = -1897215308, output OUT =  1897216052
# refmod: input A = 00000000000000000000001011101000, input B = 10001110111010101100101010110100, output OUT = 01110001000101010011100000110100
# UVM_INFO @ 795: reporter [MISCMP] Miscompare for exp.data: lhs = 'h71153834 : rhs = 'h8eeacd9c
# UVM_INFO @ 795: reporter [MISCMP] 1 Miscompare(s) for object tr@825 vs. exp@617
# UVM_WARNING @ 795: uvm_test_top.env_h.comp [Comparator Mismatch] 
# adder: input A =        212, input B = 3271159051, output OUT = 3271159263
# adder: input A = 00000000000000000000000011010100, input B = 11000010111110011110110100001011, output OUT = 11000010111110011110110111011111
# refmod: input A =         212, input B = -1023808245, output OUT =  1023808457
# refmod: input A = 00000000000000000000000011010100, input B = 11000010111110011110110100001011, output OUT = 00111101000001100001001111001001
# UVM_INFO @ 825: reporter [MISCMP] Miscompare for exp.data: lhs = 'h3d0613c9 : rhs = 'hc2f9eddf
# UVM_INFO @ 825: reporter [MISCMP] 1 Miscompare(s) for object tr@825 vs. exp@617
# UVM_WARNING @ 825: uvm_test_top.env_h.comp [Comparator Mismatch] 
# adder: input A =        181, input B = 2585876433, output OUT = 2585876614
# adder: input A = 00000000000000000000000010110101, input B = 10011010001000010101011111010001, output OUT = 10011010001000010101100010000110
# refmod: input A =         181, input B = -1709090863, output OUT =  1709091044
# refmod: input A = 00000000000000000000000010110101, input B = 10011010001000010101011111010001, output OUT = 01100101110111101010100011100100
# UVM_INFO @ 855: reporter [MISCMP] Miscompare for exp.data: lhs = 'h65dea8e4 : rhs = 'h9a215886
# UVM_INFO @ 855: reporter [MISCMP] 1 Miscompare(s) for object tr@825 vs. exp@617
# UVM_WARNING @ 855: uvm_test_top.env_h.comp [Comparator Mismatch] 
# adder: input A =        270, input B =       2554, output OUT =       2824
# adder: input A = 00000000000000000000000100001110, input B = 00000000000000000000100111111010, output OUT = 00000000000000000000101100001000
# refmod: input A =         270, input B =        2554, output OUT =       -2284
# refmod: input A = 00000000000000000000000100001110, input B = 00000000000000000000100111111010, output OUT = 11111111111111111111011100010100
# UVM_INFO @ 885: reporter [MISCMP] Miscompare for exp.data: lhs = 'hfffff714 : rhs = 'hb08
# UVM_INFO @ 885: reporter [MISCMP] 1 Miscompare(s) for object tr@825 vs. exp@617
# UVM_WARNING @ 885: uvm_test_top.env_h.comp [Comparator Mismatch] 
# adder: input A =        768, input B = 3627092954, output OUT = 3627093722
# adder: input A = 00000000000000000000001100000000, input B = 11011000001100010000101111011010, output OUT = 11011000001100010000111011011010
# refmod: input A =         768, input B =  -667874342, output OUT =   667875110
# refmod: input A = 00000000000000000000001100000000, input B = 11011000001100010000101111011010, output OUT = 00100111110011101111011100100110
# UVM_INFO @ 915: reporter [MISCMP] Miscompare for exp.data: lhs = 'h27cef726 : rhs = 'hd8310eda
# UVM_INFO @ 915: reporter [MISCMP] 1 Miscompare(s) for object tr@825 vs. exp@617
# UVM_WARNING @ 915: uvm_test_top.env_h.comp [Comparator Mismatch] 
# adder: input A =        487, input B = 2803237283, output OUT = 2803237770
# adder: input A = 00000000000000000000000111100111, input B = 10100111000101100000000110100011, output OUT = 10100111000101100000001110001010
# refmod: input A =         487, input B = -1491730013, output OUT =  1491730500
# refmod: input A = 00000000000000000000000111100111, input B = 10100111000101100000000110100011, output OUT = 01011000111010100000000001000100
# UVM_INFO @ 945: reporter [MISCMP] Miscompare for exp.data: lhs = 'h58ea0044 : rhs = 'ha716038a
# UVM_INFO @ 945: reporter [MISCMP] 1 Miscompare(s) for object tr@825 vs. exp@617
# UVM_WARNING @ 945: uvm_test_top.env_h.comp [Comparator Mismatch] 
# adder: input A =        307, input B = 2648246288, output OUT = 2648246595
# adder: input A = 00000000000000000000000100110011, input B = 10011101110110010000100000010000, output OUT = 10011101110110010000100101000011
# refmod: input A =         307, input B = -1646721008, output OUT =  1646721315
# refmod: input A = 00000000000000000000000100110011, input B = 10011101110110010000100000010000, output OUT = 01100010001001101111100100100011
# UVM_INFO @ 975: reporter [MISCMP] Miscompare for exp.data: lhs = 'h6226f923 : rhs = 'h9dd90943
# UVM_INFO @ 975: reporter [MISCMP] 1 Miscompare(s) for object tr@825 vs. exp@617
# UVM_WARNING @ 975: uvm_test_top.env_h.comp [Comparator Mismatch] 
# adder: input A =        399, input B = 3453448200, output OUT = 3453448599
# adder: input A = 00000000000000000000000110001111, input B = 11001101110101110111000000001000, output OUT = 11001101110101110111000110010111
# refmod: input A =         399, input B =  -841519096, output OUT =   841519495
# refmod: input A = 00000000000000000000000110001111, input B = 11001101110101110111000000001000, output OUT = 00110010001010001001000110000111
# UVM_INFO @ 1005: reporter [MISCMP] Miscompare for exp.data: lhs = 'h32289187 : rhs = 'hcdd77197
# UVM_INFO @ 1005: reporter [MISCMP] 1 Miscompare(s) for object tr@825 vs. exp@617
# UVM_WARNING @ 1005: uvm_test_top.env_h.comp [Comparator Mismatch] 
# adder: input A =        949, input B = 3167878549, output OUT = 3167879498
# adder: input A = 00000000000000000000001110110101, input B = 10111100110100011111110110010101, output OUT = 10111100110100100000000101001010
# refmod: input A =         949, input B = -1127088747, output OUT =  1127089696
# refmod: input A = 00000000000000000000001110110101, input B = 10111100110100011111110110010101, output OUT = 01000011001011100000011000100000
# UVM_INFO @ 1035: reporter [MISCMP] Miscompare for exp.data: lhs = 'h432e0620 : rhs = 'hbcd2014a
# UVM_INFO @ 1035: reporter [MISCMP] 1 Miscompare(s) for object tr@825 vs. exp@617
# UVM_WARNING @ 1035: uvm_test_top.env_h.comp [Comparator Mismatch] 
# adder: input A =        555, input B = 3208522322, output OUT = 3208522877
# adder: input A = 00000000000000000000001000101011, input B = 10111111001111100010101001010010, output OUT = 10111111001111100010110001111101
# refmod: input A =         555, input B = -1086444974, output OUT =  1086445529
# refmod: input A = 00000000000000000000001000101011, input B = 10111111001111100010101001010010, output OUT = 01000000110000011101011111011001
# UVM_INFO @ 1065: reporter [MISCMP] Miscompare for exp.data: lhs = 'h40c1d7d9 : rhs = 'hbf3e2c7d
# UVM_INFO @ 1065: reporter [MISCMP] 1 Miscompare(s) for object tr@825 vs. exp@617
# UVM_WARNING @ 1065: uvm_test_top.env_h.comp [Comparator Mismatch] 
# adder: input A =        397, input B = 3016578207, output OUT = 3016578604
# adder: input A = 00000000000000000000000110001101, input B = 10110011110011010101010010011111, output OUT = 10110011110011010101011000101100
# refmod: input A =         397, input B = -1278389089, output OUT =  1278389486
# refmod: input A = 00000000000000000000000110001101, input B = 10110011110011010101010010011111, output OUT = 01001100001100101010110011101110
# UVM_INFO @ 1095: reporter [MISCMP] Miscompare for exp.data: lhs = 'h4c32acee : rhs = 'hb3cd562c
# UVM_INFO @ 1095: reporter [MISCMP] 1 Miscompare(s) for object tr@825 vs. exp@617
# UVM_WARNING @ 1095: uvm_test_top.env_h.comp [Comparator Mismatch] 
# adder: input A =        257, input B = 2976995334, output OUT = 2976995591
# adder: input A = 00000000000000000000000100000001, input B = 10110001011100010101100000000110, output OUT = 10110001011100010101100100000111
# refmod: input A =         257, input B = -1317971962, output OUT =  1317972219
# refmod: input A = 00000000000000000000000100000001, input B = 10110001011100010101100000000110, output OUT = 01001110100011101010100011111011
# UVM_INFO @ 1125: reporter [MISCMP] Miscompare for exp.data: lhs = 'h4e8ea8fb : rhs = 'hb1715907
# UVM_INFO @ 1125: reporter [MISCMP] 1 Miscompare(s) for object tr@825 vs. exp@617
# UVM_WARNING @ 1125: uvm_test_top.env_h.comp [Comparator Mismatch] 
# adder: input A =        673, input B = 4026580033, output OUT = 4026580706
# adder: input A = 00000000000000000000001010100001, input B = 11110000000000001011110001000001, output OUT = 11110000000000001011111011100010
# refmod: input A =         673, input B =  -268387263, output OUT =   268387936
# refmod: input A = 00000000000000000000001010100001, input B = 11110000000000001011110001000001, output OUT = 00001111111111110100011001100000
# UVM_INFO @ 1155: reporter [MISCMP] Miscompare for exp.data: lhs = 'hfff4660 : rhs = 'hf000bee2
# UVM_INFO @ 1155: reporter [MISCMP] 1 Miscompare(s) for object tr@825 vs. exp@617
# UVM_WARNING @ 1155: uvm_test_top.env_h.comp [Comparator Mismatch] 
# adder: input A =        584, input B = 4264084284, output OUT = 4264084868
# adder: input A = 00000000000000000000001001001000, input B = 11111110001010001100001100111100, output OUT = 11111110001010001100010110000100
# refmod: input A =         584, input B =   -30883012, output OUT =    30883596
# refmod: input A = 00000000000000000000001001001000, input B = 11111110001010001100001100111100, output OUT = 00000001110101110011111100001100
# UVM_INFO @ 1185: reporter [MISCMP] Miscompare for exp.data: lhs = 'h1d73f0c : rhs = 'hfe28c584
# UVM_INFO @ 1185: reporter [MISCMP] 1 Miscompare(s) for object tr@825 vs. exp@617
# UVM_WARNING @ 1185: uvm_test_top.env_h.comp [Comparator Mismatch] 
# adder: input A =        841, input B = 2825535070, output OUT = 2825535911
# adder: input A = 00000000000000000000001101001001, input B = 10101000011010100011111001011110, output OUT = 10101000011010100100000110100111
# refmod: input A =         841, input B = -1469432226, output OUT =  1469433067
# refmod: input A = 00000000000000000000001101001001, input B = 10101000011010100011111001011110, output OUT = 01010111100101011100010011101011
# UVM_INFO @ 1215: reporter [MISCMP] Miscompare for exp.data: lhs = 'h5795c4eb : rhs = 'ha86a41a7
# UVM_INFO @ 1215: reporter [MISCMP] 1 Miscompare(s) for object tr@825 vs. exp@617
# UVM_WARNING @ 1215: uvm_test_top.env_h.comp [Comparator Mismatch] 
# adder: input A =        606, input B = 4235583823, output OUT = 4235584429
# adder: input A = 00000000000000000000001001011110, input B = 11111100011101011110000101001111, output OUT = 11111100011101011110001110101101
# refmod: input A =         606, input B =   -59383473, output OUT =    59384079
# refmod: input A = 00000000000000000000001001011110, input B = 11111100011101011110000101001111, output OUT = 00000011100010100010000100001111
# UVM_INFO @ 1245: reporter [MISCMP] Miscompare for exp.data: lhs = 'h38a210f : rhs = 'hfc75e3ad
